700,Airnav Indonesia,http://eproc.airnavindonesia.co.id
399,Badan Informasi Geospasial,http://lpse.big.go.id
424,Badan Intelijen Negara,http://202.137.7.70
130,Badan Koordinasi Keluarga Berencana Nasional,http://lpse.bkkbn.go.id
384,Badan Koordinasi Penanaman Modal,http://lpse.bkpm.go.id
524,"Badan Meteorologi, Klimatologi, dan Geofisika",http://lpse.bmkg.go.id
346,Badan Narkotika Nasional,http://lpse.bnn.go.id
382,Badan Nasional Penanggulangan Bencana,http://lpse.bnpb.go.id
547,Badan Nasional Penanggulangan Terorisme,http://lpse.bnpt.go.id
158,Badan Nasional Penempatan dan Perlindungan Tenaga Kerja Indonesia,http://lpse.bnp2tki.go.id
657,Badan Nasional Pengelola Perbatasan,http://lpse.bnpp.go.id
191,Badan Pengawas Obat dan Makanan,http://lpse.pom.go.id
69,Badan Pengkajian dan Penerapan Teknologi,http://lpse.bppt.go.id
538,Badan Pengusaha Batam,http://lpse.bpbatam.go.id
65,Badan Pertanahan Nasional,http://lpse.bpn.go.id
275,Badan Pusat Statistik,http://lpse.bps.go.id
469,Badan SAR Nasional,http://lpse.basarnas.go.id
556,Dewan Perwakilan Daerah RI,http://lpse.dpd.go.id
87,Dewan Perwakilan Rakyat RI,http://lpse.dpr.go.id
646,IAIN Bukittinggi,http://lpse.iainbukittinggi.ac.id
465,Institut Agama Islam Negeri Raden Fatah Palembang,http://lpse.radenfatah.ac.id
403,Institut Agama Islam Negeri Raden Intan Lampung,http://lpse.iainradenintan.com
137,Institut Teknologi Bandung,http://lpse.itb.ac.id
68,Institut Teknologi Sepuluh Nopember,http://lpse.its.ac.id
525,Kabupaten  Konawe,http://lpse.konawekab.go.id
498,Kabupaten Aceh Barat,http://lpse.acehbaratkab.go.id
625,Kabupaten Aceh Barat Daya,http://lpse.acehbaratdayakab.go.id
426,Kabupaten Aceh Besar,http://www.lpse.acehbesarkab.go.id
628,Kabupaten Aceh Jaya,http://lpse.acehjayakab.go.id
460,Kabupaten Aceh Selatan,http://lpse.acehselatankab.go.id
508,Kabupaten Aceh Singkil,http://lpse.acehsingkilkab.go.id
505,Kabupaten Aceh Tamiang,http://lpse.acehtamiangkab.go.id
296,Kabupaten Aceh Tengah,http://lpse.acehtengahkab.go.id
330,Kabupaten Aceh Tenggara,http://lpse.acehtenggarakab.go.id
517,Kabupaten Aceh Timur,http://123.108.97.27
189,Kabupaten Aceh Utara,http://lpse.acehutara.go.id
1001,Kabupaten Agam,http://lpse.agamkab.go.id
365,Kabupaten Anambas,http://lpse.anambaskab.go.id
407,Kabupaten Asahan,http://103.15.240.58
679,Kabupaten Asmat,http://202.125.88.134
113,Kabupaten Badung,http://lpse.badungkab.go.id
56,Kabupaten Balangan,http://lpse.balangankab.go.id
93,Kabupaten Bandung,http://lpse.bandungkab.go.id
456,Kabupaten Banggai,http://www.lpse.banggaikab.go.id
626,Kabupaten Banggai Kepulauan,http://lpse.bangkepkab.go.id
31,Kabupaten Bangka,http://lpse.bangka.go.id
340,Kabupaten Bangka Barat,http://lpse.bangkabaratkab.go.id
369,Kabupaten Bangka Selatan,http://lpse.bangkaselatankab.go.id
139,Kabupaten Bangka Tengah,http://lpse.bangkatengahkab.go.id
500,Kabupaten Bangkalan,http://lpse.bangkalankab.go.id
553,Kabupaten Bangli,http://lpse.banglikab.go.id
197,Kabupaten Banjar,http://lpse.banjarkab.go.id
129,Kabupaten Banjarnegara,http://lpse.banjarnegarakab.go.id
630,Kabupaten Bantaeng,http://lpse.bantaengkab.go.id
285,Kabupaten Bantul,http://lpse.bantulkab.go.id
153,Kabupaten Banyuasin,http://lpse.banyuasinkab.go.id
60,Kabupaten Banyumas,http://lpse.banyumaskab.go.id
72,Kabupaten Banyuwangi,http://lpse.banyuwangikab.go.id
270,Kabupaten Barito Kuala,http://www.lpse.baritokualakab.go.id
353,Kabupaten Barito Selatan,http://lpse.baritoselatankab.go.id
392,Kabupaten Barito Timur,http://118.97.212.162
458,Kabupaten Barito Utara,http://118.97.217.162
619,Kabupaten Barru,http://lpse.barrukab.go.id
209,Kabupaten Batang,http://lpse.batangkab.go.id
226,Kabupaten Batanghari,http://lpse.batangharikab.go.id
676,Kabupaten Batubara,http://lpse.batubarakab.go.id
352,Kabupaten Bekasi,http://lpse.bekasikab.go.id
258,Kabupaten Belitung,http://lpse.belitungkab.go.id
179,Kabupaten Belitung Timur,http://lpse.belitungtimurkab.go.id
374,Kabupaten Belu,http://118.97.255.155
592,Kabupaten Bener Meriah,http://lpsebenermeriah.net
161,Kabupaten Bengkalis,http://lpse.bengkaliskab.go.id
444,Kabupaten Bengkayang,http://lpse.bengkayangkab.go.id
320,Kabupaten Bengkulu Selatan,http://lpse.bengkuluselatankab.go.id
515,Kabupaten Bengkulu Tengah,http://lpse1.bengkulutengahkab.go.id
238,Kabupaten Bengkulu Utara,http://lpse.bengkuluutarakab.go.id
43,Kabupaten Berau,http://lpse.beraukab.go.id
539,Kabupaten Bima,http://180.250.210.130
495,Kabupaten Bintan,http://lpse.bintankab.go.id
514,Kabupaten Bireuen,http://lpse.bireuenkab.go.id
203,Kabupaten Blitar,http://lpse.blitarkab.go.id
257,Kabupaten Blora,http://lpse.blorakab.go.id
463,Kabupaten Boalemo,http://lpse.boalemokab.go.id
601,Kabupaten Bogor,http://lpse.bogorkab.go.id
244,Kabupaten Bojonegoro,http://lpse.bojonegorokab.net
475,Kabupaten Bolaang Mongondow,http://lpse.bolmongkab.go.id
552,Kabupaten Bolaang Mongondow Selatan,http://lpse.bolselkab.go.id
650,Kabupaten Bolaang Mongondow Timur,http://lpse.boltimkab.go.id
344,Kabupaten Bolaang Mongondow Utara,http://180.250.123.107
492,Kabupaten Bombana,http://202.93.137.147
472,Kabupaten Bondowoso,http://180.250.164.235
873,Kabupaten Bondowoso,http://110.138.184.127
566,Kabupaten Bone,http://103.10.80.114
417,Kabupaten Bone Bolango,http://lpse.bonebolangokab.go.id
280,Kabupaten Boyolali,http://lpse.boyolalikab.go.id
148,Kabupaten Brebes,http://lpse.brebeskab.go.id
358,Kabupaten Buleleng,http://lpse.bulelengkab.go.id
292,Kabupaten Bulukumba,http://lpse.bulukumbakab.net
268,Kabupaten Bulungan,http://lpse.bulungan.go.id
425,Kabupaten Bungo,http://lpse.bungokab.go.id
677,Kabupaten Buol,http://lpsebuolkab.org
697,Kabupaten Buru,http://103.10.81.42
451,Kabupaten Buton,http://182.23.41.124
623,Kabupaten Buton Utara,http://lpse.butonutarakab.go.id
672,Kabupaten Ciamis,http://lpse.ciamiskab.go.id
418,Kabupaten Cianjur,http://lpse.cianjurkab.go.id
286,Kabupaten Cilacap,http://lpse.cilacapkab.go.id
398,Kabupaten Cirebon,http://lpse.cirebonkab.go.id
462,Kabupaten Dairi,http://lpse.dairikab.go.id
549,Kabupaten Deli Serdang,http://lpse.deliserdangkab.go.id
423,Kabupaten Demak,http://lpse.demakkab.go.id
443,Kabupaten Dharmasraya,http://lpse.dharmasrayakab.go.id
479,Kabupaten Dompu,http://www.lpse.dompukab.go.id
242,Kabupaten Donggala,http://lpse.donggala.go.id
585,Kabupaten Empat Lawang,http://empatlawangkab.net
135,Kabupaten Ende,http://www.lpse.endekab.go.id
231,Kabupaten Enrekang,http://180.250.214.50
631,Kabupaten Flores Timur,http://lpse.florestimurkab.go.id
497,Kabupaten Gayo Lues,http://lpse.gayolueskab.go.id
350,Kabupaten Gianyar,http://lpse.gianyarkab.go.id
606,Kabupaten Gorontalo,http://lpse.gorontalokab.go.id
452,Kabupaten Gorontalo Utara,http://www.lpse.gorutkab.go.id
644,Kabupaten Gowa,http://lpsegowakab.net
122,Kabupaten Gresik,http://lpse.gresikkab.go.id
211,Kabupaten Grobogan,http://lpse.grobogan.go.id
621,Kabupaten Gunung Kidul,http://lpse.gunungkidulkab.go.id
379,Kabupaten Gunung Mas,http://lpse.gunungmaskab.go.id
698,Kabupaten Halmahera Barat,http://lpse.halbarkab.go.id
421,Kabupaten Halmahera Selatan,http://202.58.242.25
233,Kabupaten Halmahera Utara,http://lpse.halmaherautarakab.go.id
282,Kabupaten Hulu Sungai Selatan,http://lpse.hulusungaiselatankab.go.id
315,Kabupaten Hulu Sungai Tengah,http://118.97.212.26
85,Kabupaten Hulu Sungai Utara,http://lpse.hulusungaiutarakab.go.id
420,Kabupaten Humbang Hasundutan,http://lpse.humbanghasundutankab.go.id
165,Kabupaten Indragiri Hilir,http://lpse.inhilkab.go.id
376,Kabupaten Indragiri Hulu,http://lpse.inhukab.go.id
1006,Kabupaten Indramayu,http://www.lpse.indramayukab.go.id
647,Kabupaten Jayapura,http://lpse.jayapurakab.go.id
307,Kabupaten Jayawijaya,http://lpse.jayawijayakab.go.id
200,Kabupaten Jember,http://180.250.161.42
167,Kabupaten Jembrana,http://lpse.jembranakab.go.id
466,Kabupaten Jeneponto,http://lpse.jenepontokab.go.id
182,Kabupaten Jepara,http://lpse.jeparakab.go.id
116,Kabupaten Jombang,http://lpse.jombangkab.go.id
232,Kabupaten Kampar,http://lpse.kamparkab.go.id
322,Kabupaten Kapuas,http://lpse.kapuaskab.go.id
488,Kabupaten Kapuas Hulu,http://lpse.kapuashulukab.go.id
141,Kabupaten Karanganyar,http://lpse.karanganyarkab.go.id
513,Kabupaten Karangasem,http://lpse.karangasemkab.go.id
147,Kabupaten Karimun,http://lpse.karimunkab.go.id
516,Kabupaten Karo,http://lpse.karokab.go.id
438,Kabupaten Katingan,http://lpse.katingankab.go.id
431,Kabupaten Kaur,http://110.137.123.79
393,Kabupaten Kayong Utara,http://lpse.kayongutarakab.go.id
53,Kabupaten Kebumen,http://lpse.kebumenkab.go.id
207,Kabupaten Kediri,http://lpse.kedirikab.go.id
648,Kabupaten Keerom,http://lpse.keerom.papua.go.id
583,Kabupaten Keerom,http://lpse.keerom.papua.go.id
501,Kabupaten Kendal,http://lpse.kendalkab.go.id
377,Kabupaten Kepahiang,http://lpse.kepahiangkab.go.id
674,Kabupaten Kepulauan Aru,http://lpse.kepulauanarukab.go.id
489,Kabupaten Kepulauan Mentawai,http://lpse.mentawaikab.go.id
459,Kabupaten Kepulauan Meranti,http://www.lpse.merantikab.go.id
506,Kabupaten Kepulauan Sangihe,http://lpse.sangihekab.go.id
570,Kabupaten Kepulauan Selayar,http://180.250.216.194
294,Kabupaten Kepulauan Siau Tagulandang Biaro,http://lpse.sitarokab.go.id
155,Kabupaten Kerinci,http://lpse.kerincikab.go.id
110,Kabupaten Ketapang,http://lpse.ketapang.org
51,Kabupaten Klaten,http://lpse.klatenkab.go.id
433,Kabupaten Klungkung,http://36.75.215.111
474,Kabupaten Kolaka,http://lpse.kolakakab.go.id
620,Kabupaten Kolaka Utara,http://lpse.kolutkab.go.id
343,Kabupaten Komering Ulu Selatan,http://lpse.okuselatankab.go.id
658,Kabupaten Konawe Kepulauan,http://lpsekonkep.net
430,Kabupaten Konawe Selatan,http://konaweselatankab.go.id
587,Kabupaten Konawe Utara,http://lpse.konaweutarakab.go.id
427,Kabupaten Kotabaru,http://lpse.kotabarukab.go.id
176,Kabupaten Kotawaringin Barat,http://lpse.kotawaringinbaratkab.go.id
183,Kabupaten Kotawaringin Timur,http://lpse.kotimkab.go.id
186,Kabupaten Kuantan Singingi,http://lpse.kuansing.go.id
188,Kabupaten Kubu Raya,http://lpse.kuburayakab.go.id
94,Kabupaten Kudus,http://lpse.kuduskab.go.id
367,Kabupaten Kulon Progo,http://lpse.kulonprogokab.go.id
339,Kabupaten Kuningan,http://lpse.kuningankab.go.id
551,Kabupaten Kupang,http://180.250.210.150
249,Kabupaten Kutai Barat,http://lpse.kubarkab.go.id
198,Kabupaten Kutai Kartanegara,http://lpse.kutaikartanegarakab.go.id
364,Kabupaten Kutai Timur,http://lpse.kutaitimurkab.go.id
412,Kabupaten Labuan Batu Selatan,http://lpse.labuhanbatuselatankab.go.id
481,Kabupaten Labuhan Batu,http://lpse.labuhanbatukab.go.id
604,Kabupaten Labuhan Batu Utara,http://lpse.labuhanbatuutarakab.go.id
434,Kabupaten Lahat,http://www.lpse.lahatkab.go.id
306,Kabupaten Lamandau,http://www.lpse.lamandaukab.go.id
57,Kabupaten Lamongan,http://lpse.lamongankab.go.id
305,Kabupaten Lampung Barat,http://lpse.lampungbaratkab.go.id
217,Kabupaten Lampung Selatan,http://lpse.lampungselatankab.go.id
237,Kabupaten Lampung Tengah,http://lpse.lampungtengahkab.go.id
166,Kabupaten Lampung Timur,http://www.lpse.lampungtimurkab.go.id
328,Kabupaten Lampung Utara,http://lpse.lampungutarakab.go.id
496,Kabupaten Landak,http://118.97.203.51
304,Kabupaten Langkat,http://lpse.langkatkab.go.id
98,Kabupaten Lebak,http://lpse.lebakkab.go.id
239,Kabupaten Lebong,http://lpse.lebongkab.go.id
680,Kabupaten Lembata,http://lpse.lembatakab.go.id
610,Kabupaten Lima Puluh Kota,http://lpse.limapuluhkotakab.go.id
381,Kabupaten Lombok Barat,http://lpse.lombokbaratkab.go.id
120,Kabupaten Lombok Tengah,http://lpse.lomboktengahkab.go.id
395,Kabupaten Lombok Timur,http://www.lpse.lomboktimurkab.go.id
487,Kabupaten Lombok Utara,http://118.97.133.43
256,Kabupaten Lumajang,http://lpse.lumajangkab.go.id
502,Kabupaten Luwu,http://lpse.luwukab.go.id
422,Kabupaten Luwu Timur,http://lpse.luwutimurkab.go.id
45,Kabupaten Luwu Utara,http://lpse.luwuutara.go.id
204,Kabupaten Madiun,http://lpse.madiunkab.go.id
115,Kabupaten Magelang,http://lpse.magelangkab.go.id
255,Kabupaten Magetan,http://lpse.magetankab.go.id
253,Kabupaten Majalengka,http://lpse.majalengkakab.go.id
400,Kabupaten Majene,http://lpse.majenekab.go.id
684,Kabupaten Malaka,http://180.250.181.178
247,Kabupaten Malang,http://lpse.malangkab.go.id
321,Kabupaten Malinau,http://lpse.malinau.go.id
618,Kabupaten Maluku Tenggara,http://lpse.malukutenggarakab.go.id
688,Kabupaten Maluku Tenggara Barat,http://118.98.119.59
664,Kabupaten Mamasa,http://www.lpsemamasakab.org
289,Kabupaten Mamuju,http://lpse.mamujukab.go.id
660,Kabupaten Mamuju Utara,http://180.250.211.218
373,Kabupaten Mandailing Natal,http://www.lpse.madina.go.id
633,Kabupaten Manggarai,http://180.250.167.131
409,Kabupaten Manggarai Barat,http://www.lpse.manggaraibaratkab.go.id
461,Kabupaten Manggarai Timur,http://122.49.225.67
435,Kabupaten Manokwari,http://118.97.134.18
250,Kabupaten Maros,http://lpse.maroskab.go.id
540,Kabupaten Melawi,http://lpse2.melawikab.go.id
614,Kabupaten Merangin,http://lpse.meranginkab.go.id
271,Kabupaten Merauke,http://lpse.merauke.go.id
682,Kabupaten Mesuji,http://lpse.mesujikab.go.id
639,Kabupaten Mimika,http://lpse.mimikakab.go.id
406,Kabupaten Minahasa,http://lpse.minahasa.go.id
436,Kabupaten Minahasa Selatan,http://110.139.229.106
284,Kabupaten Minahasa Tenggara,http://lpse.mitrakab.go.id
219,Kabupaten Minahasa Utara,http://lpse.minutkab.go.id
300,Kabupaten Mojokerto,http://lpse.mojokertokab.go.id
295,Kabupaten Morowali,http://www.lpse.morowali.co
678,Kabupaten Morowali Utara,http://lpse.morowaliutarakab.go.id
107,Kabupaten Muara Enim,http://lpse.muaraenimkab.go.id
269,Kabupaten Muaro Jambi,http://lpse.muarojambikab.go.id
348,Kabupaten MukoMuko,http://lpse.mukomukokab.go.id
441,Kabupaten Muna,http://lpse.munakab.go.id
510,Kabupaten Murung Raya,http://lpse.kabmurungraya.go.id
168,Kabupaten Musi Banyuasin,http://mubakab.go.id
311,Kabupaten Musi Rawas,http://www.lpse.musi-rawas.go.id
675,Kabupaten Musi Rawas Utara,http://121.100.25.30
548,Kabupaten Nagan Raya,http://lpse.naganrayakab.go.id
666,Kabupaten Nagekeo,http://180.250.182.76
355,Kabupaten Natuna,http://lpse.natunakab.go.id
310,Kabupaten Ngada,http://lpse.ngadakab.go.id
152,Kabupaten Nganjuk,http://lpse.nganjukkab.go.id
78,Kabupaten Ngawi,http://lpse.ngawikab.go.id
593,Kabupaten Nias,http://lpse.niaskab.go.id
669,Kabupaten Nias Barat,http://180.250.49.210
567,Kabupaten Nias Selatan,http://103.17.172.178
642,Kabupaten Nias Utara,http://203.130.248.42
338,Kabupaten Nunukan,http://lpse.nunukankab.go.id
357,Kabupaten Ogan Ilir,http://lpse.oganilirkab.go.id
156,Kabupaten Ogan Komering Ilir,http://lpse.kaboki.go.id
401,Kabupaten Ogan Komering Ulu,http://118.97.170.11
447,Kabupaten Ogan Komering Ulu Timur,http://lpse.okutimurkab.go.id
58,Kabupaten Pacitan,http://lpse.pacitankab.go.id
668,Kabupaten Padang Lawas,http://lpse.palaskab.go.id
471,Kabupaten Padang Lawas Utara,http://lpse.padanglawasutarakab.go.id
634,Kabupaten Pakpak Bharat,http://lpse.pakpakbharatkab.go.id
453,Kabupaten Pamekasan,http://lpse.pamekasankab.go.id
470,Kabupaten Pandeglang,http://lpse.pandeglangkab.go.id
509,Kabupaten Pangkajene dan Kepulauan,http://lpse.pangkepkab.go.id
149,Kabupaten Parigi Moutong,http://lpse.parigimoutongkab.go.id
223,Kabupaten Pasaman,http://lpse.pasamankab.go.id
301,Kabupaten Pasaman Barat,http://lpse.pasamanbaratkab.go.id
52,Kabupaten Paser,http://lpse.paserkab.go.id
380,Kabupaten Pasuruan,http://lpse.pasuruankab.go.id
334,Kabupaten Pati,http://lpsepatikab.org
202,Kabupaten Pekalongan,http://lpse.pekalongankab.go.id
254,Kabupaten Pelalawan,http://lpse.pelalawankab.go.id
90,Kabupaten Pemalang,http://lpse.pemalangkab.go.id
264,Kabupaten Penajam Paser Utara,http://lpse.penajamkab.go.id
661,Kabupaten Penukal Abab Lematang Ilir,http://202.146.178.242
274,Kabupaten Pesawaran,http://www.lpse.pesawarankab.go.id
599,Kabupaten Pesisir Selatan,http://lpse.pesisirselatankab.go.id
565,Kabupaten Pidie,http://123.108.97.30
595,Kabupaten Pidie Jaya,http://lpse.pidiejayakab.go.id
206,Kabupaten Pinrang,http://lpse.pinrangkab.go.id
325,Kabupaten Pohuwato,http://lpse.pohuwatokab.go.id
281,Kabupaten Polewali Mandar,http://lpse.polewalimandarkab.go.id
360,Kabupaten Ponorogo,http://180.247.199.53
118,Kabupaten Pontianak,http://lpse.pontianakkab.go.id
586,Kabupaten Poso,http://lpse.posokab.go.id
337,Kabupaten Pringsewu,http://lpsepringsewu.net
319,Kabupaten Probolinggo,http://lpse.probolinggokab.go.id
483,Kabupaten Pulang Pisau,http://lpse.pulangpisaukab.go.id
477,Kabupaten Pulau Morotai,http://www.lpse.pulaumorotaikab.go.id
140,Kabupaten Purbalingga,http://lpse.purbalinggakab.go.id
667,Kabupaten Purwakarta,http://118.97.188.197
146,Kabupaten Purworejo,http://lpse.purworejokab.go.id
607,Kabupaten Raja Ampat,http://180.250.223.58
390,Kabupaten Rejang Lebong,http://222.124.190.50
375,Kabupaten Rembang,http://lpse.rembangkab.go.id
484,Kabupaten Rokan Hilir,http://lpse.rohilkab.go.id
283,Kabupaten Rokan Hulu,http://lpse.rokanhulukab.go.id
473,Kabupaten Rote Ndao,http://119.82.228.54
617,Kabupaten Sabu Raijua,http://lpse.saburaijuakab.go.id
354,Kabupaten Sambas,http://lpse.sambas.go.id
342,Kabupaten Samosir,http://lpse.samosirkab.go.id
413,Kabupaten Sampang,http://lpse.sampangkab.go.id
298,Kabupaten Sanggau,http://lpse.sanggau.go.id
230,Kabupaten Sarolangun,http://lpse.sarolangunkab.go.id
175,Kabupaten Sekadau,http://lpse.sekadaukab.go.id
564,Kabupaten Seluma,http://lpse.selumakab.go.id
32,Kabupaten Semarang,http://lpse.semarangkab.go.id
694,Kabupaten Seram Bagian Timur,http://222.124.153.236
245,Kabupaten Serang,http://103.49.228.42
378,Kabupaten Serdang Bedagai,http://lpse.serdangbedagaikab.go.id
336,Kabupaten Seruyan,http://lpse.seruyankab.go.id
309,Kabupaten Siak,http://lpse.siak.go.id
404,Kabupaten Sidenreng Rappang,http://180.250.215.146
111,Kabupaten Sidoarjo,http://lpse.sidoarjokab.go.id
437,Kabupaten Sigi,http://lpse.sigikab.go.id
615,Kabupaten Sijunjung,http://lpse.sijunjung.go.id
611,Kabupaten Sikka,http://www.lpse.sikkakab.go.id
494,Kabupaten Simalungun,http://lpse.simalungunkab.go.id
383,Kabupaten Simeulue,http://lpse.simeuluekab.go.id
265,Kabupaten Sinjai,http://lpse.sinjaikab.go.id
345,Kabupaten Sintang,http://lpse.sintang.go.id
246,Kabupaten Situbondo,http://lpse.situbondokab.go.id
54,Kabupaten Sleman,http://lpse.slemankab.go.id
608,Kabupaten Solok,http://lpse.solokkab.go.id
521,Kabupaten Soppeng,http://180.250.208.70
693,Kabupaten Sorong Selatan,http://lpse.sorongselatankab.go.id
228,Kabupaten Sragen,http://lpse.sragenkab.go.id
609,Kabupaten Sukabumi,http://lpse.sukabumikab.go.id
414,Kabupaten Sukamara,http://lpse.sukamarakab.go.id
160,Kabupaten Sukoharjo,http://lpse.sukoharjokab.go.id
457,Kabupaten Sumba Barat,http://lpse.sumbabaratkab.go.id
561,Kabupaten Sumba Barat Daya,http://lpse.sbdkab.go.id
562,Kabupaten Sumba Tengah,http://202.43.175.243
612,Kabupaten Sumba Timur,http://lpse.sumbatimurkab.go.id
222,Kabupaten Sumbawa,http://lpse.sumbawakab.go.id
133,Kabupaten Sumbawa Barat,http://lpse.sumbawabaratkab.go.id
432,Kabupaten Sumedang,http://lpse.sumedangkab.go.id
248,Kabupaten Sumenep,http://lpse.sumenep.go.id
59,Kabupaten Tabalong,http://lpse.tabalongkab.go.id
504,Kabupaten Tabanan,http://lpse.tabanankab.go.id
643,Kabupaten Takalar,http://www.lpsetakalarkab.net
665,Kabupaten Talaud,http://118.97.33.28
594,Kabupaten Tana Tidung,http://lpse.tanatidungkab.go.id
622,Kabupaten Tana Toraja,http://www.lpse.tanatorajakab.net
317,Kabupaten Tanah Bumbu,http://lpse.tanahbumbukab.go.id
157,Kabupaten Tanah Datar,http://lpse.tanahdatar.go.id
172,Kabupaten Tanah Laut,http://118.97.208.170
333,Kabupaten Tangerang,http://lpse.tangerangkab.go.id
476,Kabupaten Tanggamus,http://103.29.4.212
290,Kabupaten Tanjung Jabung Barat,http://www.lpse.tanjabbarkab.go.id
331,Kabupaten Tanjung Jabung Timur,http://lpse.tanjabtimkab.go.id
597,Kabupaten Tapanuli Selatan,http://lpse.tapselkab.go.id
652,Kabupaten Tapanuli Tengah,http://180.250.46.20
277,Kabupaten Tapanuli Utara,http://lpse.taputkab.go.id
177,Kabupaten Tapin,http://lpse.tapinkab.go.id
332,Kabupaten Tasikmalaya,http://lpse.tasikmalayakab.go.id
326,Kabupaten Tebo,http://lpse.tebokab.go.id
287,Kabupaten Tegal,http://lpse.tegalkab.go.id
138,Kabupaten Temanggung,http://lpse.temanggungkab.go.id
507,Kabupaten Timor Tengah Selatan,http://lpse.ttskab.go.id
681,Kabupaten Timor Tengah Utara,http://118.97.253.227
558,Kabupaten Toba Samosir,http://lpse.tobasamosirkab.go.id
187,Kabupaten Tojo una-una,http://lpse.tojounaunakab.go.id
511,Kabupaten Toli-Toli,http://118.97.36.171
640,Kabupaten Toraja Utara,http://lpsetorajautara.net
391,Kabupaten Trenggalek,http://lpse.trenggalekkab.go.id
415,Kabupaten Tuban,http://lpse.tubankab.go.id
394,Kabupaten Tulang Bawang,http://lpse.tulangbawangkab.go.id
486,Kabupaten Tulang Bawang Barat,http://lpse.tulangbawangbaratkab.go.id
449,Kabupaten Tulungagung,http://lpse.tulungagung.go.id
335,Kabupaten Wajo,http://lpse.wajokab.go.id
448,Kabupaten Wakatobi,http://lpse.wakatobikab.go.id
629,Kabupaten Way Kanan,http://180.250.48.141
314,Kabupaten Wonogiri,http://www.lpse.wonogirikab.go.id
220,Kabupaten Wonosobo,http://lpse.wonosobokab.go.id
670,Kejaksaan Agung RI,http://lpse.kejaksaan.go.id
170,Kementerian Agama,http://lpse.kemenag.go.id
105,Kementerian Dalam Negeri,http://lpse.kemendagri.go.id
109,Kementerian Energi dan Sumber Daya Mineral,http://eproc.esdm.go.id
252,Kementerian Hukum dan Hak Asasi Manusia,http://lpse.kemenkumham.go.id
291,Kementerian Kehutanan,http://lpse.dephut.go.id
218,Kementerian Kelautan dan Perikanan,http://lpse.kkp.go.id
47,Kementerian Kesehatan,http://lpse.depkes.go.id
11,Kementerian Keuangan,http://www.lpse.depkeu.go.id
683,Kementerian Komunikasi dan Informatika,http://lpse.kominfo.go.id
522,"Kementerian Koordinator Bidang Politik, Hukum, dan Keamanan",http://lpse.polkam.go.id
371,Kementerian Koperasi dan Usaha Kecil Menengah,http://lpse.depkop.go.id
563,Kementerian Lingkungan Hidup,http://lpse.menlh.go.id
136,Kementerian Luar Negeri,http://lpse.kemlu.go.id
273,Kementerian Negara Riset dan Teknologi,http://lpse.ristek.go.id
386,Kementerian Pariwisata dan Ekonomi Kreatif,http://lpse.parekraf.go.id
627,Kementerian Pekerjaan Umum,http://lpse.pu.go.id
243,Kementerian Pembangunan Daerah Tertinggal,http://lpse.kemenegpdt.go.id
519,Kementerian Pemuda dan Olahraga,http://lpse.kemenpora.go.id
366,Kementerian Pendayagunaan Aparatur Negara dan Reformasi Birokrasi,http://lpse.menpan.go.id
25,Kementerian Pendidikan dan Kebudayaan,http://lpse.kemdiknas.go.id
276,Kementerian Perdagangan,http://lpse.kemendag.go.id
114,Kementerian Perhubungan,http://lpse.dephub.go.id
126,Kementerian Perindustrian,http://lpse.kemenperin.go.id
482,Kementerian Pertahanan,http://lpse.kemhan.go.id
212,Kementerian Pertanian,http://lpse.deptan.go.id
64,Kementerian Perumahan Rakyat,http://lpse.kemenpera.go.id
323,Kementerian Sosial,http://lpse.depsos.go.id
194,Kementerian Tenaga Kerja dan Transmigrasi,http://lpse.depnakertrans.go.id
44,Kepolisian RI,http://lpse.polri.go.id
654,Kota Ambon,http://lpse.ambon.go.id
316,Kota Balikpapan,http://lpse.balikpapan.go.id
20,Kota Banda Aceh,http://lpse.bandaacehkota.go.id
193,Kota Bandar Lampung,http://lpse.bandarlampungkota.go.id
260,Kota Bandung,http://lpse.bandung.go.id
428,Kota Banjar,http://lpse.banjar-jabar.go.id
23,Kota Banjarbaru,http://lpse.banjarbarukota.go.id
24,Kota Banjarmasin,http://lpse.banjarmasin.go.id
26,Kota Batam,http://lpse.batamkota.go.id
201,Kota Batu,http://lpse.batukota.go.id
405,Kota Baubau,http://lpse.baubaukota.go.id
359,Kota Bekasi,http://lpse.bekasikota.go.id
278,Kota Bengkulu,http://118.97.166.133
464,Kota Bima,http://118.97.134.162
598,Kota Binjai,http://lpse.binjaikota.go.id
329,Kota Bitung,http://lpse.bitungkota.go.id
205,Kota Blitar,http://lpse.blitarkota.go.id
163,Kota Bogor,http://eproc.kotabogor.go.id
312,Kota Bontang,http://lpse.bontangkota.go.id
297,Kota Bukit Tinggi,http://lpse.bukittinggikota.go.id
318,Kota Cilegon,http://lpse.cilegon.go.id
299,Kota Cimahi,http://lpse.cimahikota.go.id
503,Kota Cirebon,http://lpse.cirebonkota.go.id
17,Kota Denpasar,http://eproc.denpasarkota.go.id
34,Kota Depok,http://lpse.depok.go.id
313,Kota Dumai,http://lpsedumai.net
478,Kota Gunungsitoli,http://lpse.gunungsitolikota.go.id
259,Kota Jambi,http://lpse.jambikota.go.id
613,Kota Jayapura,http://lpse.jayapurakota.go.id
590,Kota Kediri,http://lpse.kedirikota.go.id
571,Kota Kendari,http://lpsekotakendari.net
180,Kota Kotamobagu,http://lpse.kotamobagukota.go.id
439,Kota Kupang,http://lpse.kupangkota.go.id
370,Kota Langsa,http://lpse.langsakota.go.id
261,Kota Lhokseumawe,http://lpse.lhokseumawekota.go.id
195,Kota Lubuklinggau,http://lpse.lubuklinggaukota.go.id
164,Kota Madiun,http://lpse.madiunkota.go.id
279,Kota Magelang,http://lpse.magelangkota.go.id
234,Kota Makassar,http://www.lpse-makassar.info
192,Kota Malang,http://lpse.malangkota.go.id
349,Kota Manado,http://lpse.manadokota.go.id
396,Kota Mataram,http://lpse.mataramkota.go.id
308,Kota Medan,http://www.lpse.pemkomedan.go.id
150,Kota Metro,http://lpse.metrokota.go.id
324,Kota Mojokerto,http://lpse.mojokertokota.go.id
624,Kota Padang,http://lpse.padang.go.id
523,Kota Padangsidimpuan,http://110.137.57.135
142,Kota Pagar Alam,http://lpse.pagaralam.go.id
372,Kota Palangkaraya,http://lpse.palangkaraya.go.id
251,Kota Palembang,http://lpse.palembang.go.id
347,Kota Palopo,http://118.97.255.230
214,Kota Palu,http://lpse.palukota.go.id
96,Kota Pangkal Pinang,http://lpse.pangkalpinangkota.go.id
235,Kota Pare-pare,http://112.78.46.114
1002,Kota Pariaman,http://lpse.pariamankota.go.id
419,Kota Pasuruan,http://lpse.pasuruankota.go.id
50,Kota Payakumbuh,http://www.lpse.payakumbuhkota.go.id
91,Kota Pekalongan,http://lpse.pekalongankota.go.id
19,Kota Pekanbaru,http://lpse.pekanbaru.go.id
526,Kota Pematangsiantar,http://lpse.pematangsiantarkota.go.id
62,Kota Pontianak,http://lpse.pontianakkota.go.id
102,Kota Prabumulih,http://lpse.kotaprabumulih.go.id
410,Kota Probolinggo,http://lpse.probolinggokota.go.id
151,Kota Sabang,http://lpse.sabangkota.go.id
88,Kota Salatiga,http://lpse.salatigakota.go.id
596,Kota Samarinda,http://lpse.samarindakota.go.id
108,Kota Semarang,http://lpse.semarangkota.go.id
493,Kota Serang,http://lpse.serangkota.go.id
708,Kota Sibolga,http://222.124.128.74
132,Kota Singkawang,http://lpse.singkawangkota.go.id
385,Kota Solok,http://lpse.solokkota.go.id
550,Kota Subulussalam,http://www.lpse.subulussalamkota.go.id
450,Kota Sungai Penuh,http://lpse.sungaipenuhkota.go.id
10,Kota Surabaya,http://lpse.surabaya.go.id
104,Kota Surakarta,http://lpse.surakarta.go.id
66,Kota Tangerang,http://lpse.tangerangkota.go.id
225,Kota Tangerang Selatan,http://lpse.tangerangselatankota.go.id
388,Kota Tanjung Balai,http://lpse.tanjungbalaikota.go.id
673,Kota Tanjung Pinang,http://lpse.tanjungpinangkota.go.id
184,Kota Tarakan,http://lpse.tarakankota.go.id
440,Kota Tasikmalaya,http://lpse.tasikmalayakota.go.id
445,Kota Tebing Tinggi,http://lpse.tebingtinggikota.go.id
48,Kota Tegal,http://lpse.tegalkota.go.id
341,Kota Ternate,http://lpse.ternatekota.go.id
518,Kota Tidore Kepulauan,http://180.250.208.35
554,Kota Tomohon,http://lpse.tomohonkota.go.id
699,Kota Tual,http://www.lpse.tualkota.go.id
21,Kota Yogyakarta,http://lpse.jogjakota.go.id
362,Lembaga Ilmu Pengetahuan Indonesia,http://lpse.lipi.go.id
119,Lembaga Kebijakan Pengadaan Barang dan Jasa Pemerintah,https://lpse.lkpp.go.id
649,Lembaga Ketahanan Nasional,http://lpse.lemhannas.go.id
653,Lembaga Penerbangan dan Antariksa Nasional,http://lpse.lapan.go.id
491,Lembaga Sandi Negara,http://lpse.lemsaneg.go.id
555,Mahkamah Agung RI,http://lpse.mahkamahagung.go.id
95,Mahkamah Konstitusi,http://lpse.mahkamahkonstitusi.go.id
411,Mahkamah Syar'iyah Aceh,http://lpse.ms-aceh.go.id
210,Majelis Permusyawaratan Rakyat RI,http://lpse.mpr.go.id
701,PD.SARANA JAYA,http://202.158.29.254
686,PDAM Kota Malang,http://spse.pdamkotamalang.com
616,PT Angkasa Pura II (Persero),http://222.124.141.248
651,PT.  Jasa Marga (Persero) Tbk.,http://lpse.jasamarga.com
28,PT. Kawasan Berikat Nusantara,http://lpse.kbn.co.id
92,PT. Pelayaran Nasional Indonesia,http://lpse.pelni.co.id
100,PT. Perusahaan Listrik Negara,http://eproc-lpse.pln.co.id
557,Pelabuhan Indonesia 1 Medan,http://lpse.inaport1.co.id
568,Polda Aceh,http://lpse.aceh.polri.go.id
579,Polda Bali,http://lpse.bali.polri.go.id
527,Polda Banten,http://110.137.190.81
580,Polda Bengkulu,http://lpse.bengkulu.polri.go.id
530,Polda D.I Yogyakarta,http://180.246.211.111
531,Polda Gorontalo,http://lpse.gorontalo.polri.go.id
578,Polda Jawa Barat,http://110.136.158.51
569,Polda Jawa Tengah,http://lpse.jateng.polri.go.id
581,Polda Jawa Timur,http://lpse.jatim.polri.go.id
533,Polda Kalimantan Barat,http://36.75.85.117
572,Polda Kalimantan Selatan,http://www.lpse.kalsel.polri.go.id
534,Polda Kalimantan Tengah,http://www.lpse.kalteng.polri.go.id
536,Polda Kepulauan Riau,http://lpse.kepri.polri.go.id
591,Polda Lampung,http://lpse.lampung.polri.go.id
574,Polda Maluku Utara,http://lpse.malut.polri.go.id
535,Polda Nusa Tenggara Barat,http://lpse.ntb.polri.go.id
573,Polda Nusa Tenggara Timur,http://lpse.ntt.polri.go.id
691,Polda Riau,http://36.69.26.211
544,Polda Sulawesi Selatan,http://www.lpse.sulsel.polri.go.id
542,Polda Sulawesi Tengah,http://lpse.sulteng.polri.go.id
541,Polda Sulawesi Utara,http://lpse.sulut.polri.go.id
543,Polda Sumatera Selatan,http://www.lpse.sumsel.polri.go.id
546,Polda Sumatera Utara,http://lpse.sumut.polri.go.id
389,Politeknik Negeri Bandung,http://lpse.polban.ac.id
368,Politeknik Negeri Jakarta,http://lpse.pnj.ac.id
520,Politeknik Negeri Jember,http://lpse.polije.ac.id
46,Politeknik Negeri Lampung,http://lpse.polinela.ac.id
442,Politeknik Negeri Malang,http://lpse.polinema.ac.id
659,Politeknik Negeri Manado,http://118.97.45.61
356,Politeknik Negeri Sriwijaya,http://lpse.polsri.ac.id
455,Politeknik Negeri Ujung Pandang,http://lpse.poliupg.ac.id
635,Politeknik Pertanian Negeri Pangkep (Pangkajene dan Kepulauan),http://lpse.polipangkep.ac.id
106,Provinsi Aceh,http://lpse.acehprov.go.id
33,Provinsi Bali,http://lpse.baliprov.go.id
99,Provinsi Banten,http://lpse.bantenprov.go.id
267,Provinsi Bengkulu,http://lpse.bengkuluprov.go.id
127,Provinsi DKI Jakarta,http://lpse.jakarta.go.id
13,Provinsi Daerah Istimewa Yogyakarta,http://lpse.jogjaprov.go.id
18,Provinsi Gorontalo,http://lpse.gorontaloprov.go.id
70,Provinsi Jambi,http://lpse.jambiprov.go.id
14,Provinsi Jawa Barat,https://lpse.jabarprov.go.id
42,Provinsi Jawa Tengah,http://lpse.jatengprov.go.id
15,Provinsi Jawa Timur,http://lpse.jatimprov.go.id
97,Provinsi Kalimantan Barat,http://lpse.kalbarprov.go.id
181,Provinsi Kalimantan Selatan,http://lpse.kalselprov.go.id
12,Provinsi Kalimantan Tengah,http://lpse.kalteng.go.id
35,Provinsi Kalimantan Timur,http://spse.kaltimprov.go.id
86,Provinsi Kepulauan Bangka Belitung,http://lpse.babelprov.go.id
22,Provinsi Kepulauan Riau,http://lpse.kepriprov.go.id
121,Provinsi Lampung,http://lpse.lampungprov.go.id
288,Provinsi Maluku,http://lpse.malukuprov.go.id
361,Provinsi Maluku Utara,http://118.97.30.235
37,Provinsi Nusa Tenggara Barat,http://lpse.ntbprov.go.id
131,Provinsi Nusa Tenggara Timur,http://222.124.152.187
41,Provinsi Papua,http://lpse.papua.go.id
641,Provinsi Papua Barat,http://202.123.231.123
39,Provinsi Riau,http://lpse.riau.go.id
263,Provinsi Sulawesi Barat,http://125.167.121.151
36,Provinsi Sulawesi Selatan,http://lpse.sulselprov.go.id
154,Provinsi Sulawesi Tengah,http://lpse.sulteng.go.id
81,Provinsi Sulawesi Tenggara,http://lpse.sultraprov.go.id
173,Provinsi Sulawesi Utara,http://lpse.sulutprov.go.id
16,Provinsi Sumatera Barat,http://lpse.sumbarprov.go.id
103,Provinsi Sumatera Selatan,http://lpse.sumselprov.go.id
27,Provinsi Sumatera Utara,http://lpse.sumutprov.go.id
215,RSJ Dr. Radjiman Wediodiningrat Lawang,http://222.124.26.92
171,RSUP Wahidin Sudirohusodo,http://180.250.216.237
397,STAIN Parepare,http://lpse.stainparepare.ac.id
229,Sekolah Tinggi Agama Islam Negeri Jember,http://222.124.210.172
467,Sekolah Tinggi Pariwisata Nusa Dua Bali,http://lpse.stpbali.ac.id.
528,Sekretariat Jenderal Dewan Ketahanan Nasional,http://lpse.dkn.go.id
588,TNI ANGKATAN LAUT,http://lpse.tnial.mil.id
638,TNI Angkatan Darat,http://lpse.tniad.mil.id
605,TNI Angkatan Udara,http://180.243.87.93
236,Televisi Republik Indonesia,http://lpse.tvri.co.id
603,Tentara Nasional Indonesia,http://118.97.76.211
262,Universitas Airlangga,http://lpse.unair.ac.id
302,Universitas Andalas,http://lpse.unand.ac.id
240,Universitas Bandar Lampung,http://lpse.ubl.ac.id
185,Universitas Bengkulu,http://lpse.unib.ac.id
128,Universitas Brawijaya,http://lpse.ub.ac.id
29,Universitas Diponegoro,http://lpse.undip.ac.id
303,Universitas Gadjah Mada,http://lpse.ugm.ac.id
402,Universitas Haluoleo,http://lpse.uho.ac.id
174,Universitas Hasanudin,http://lpse.unhas.ac.id
190,Universitas Indonesia,http://lpse.ui.ac.id
416,Universitas Islam Negeri Alauddin Makasar,http://lpse.uin-alauddin.ac.id
408,Universitas Jambi,http://lpse.unja.ac.id
241,Universitas Jember,http://lpse.unej.ac.id
227,Universitas Jenderal Soedirman,http://lpse.unsoed.ac.id
560,Universitas Lambung Mangkurat,http://lpse.unlam.ac.id
490,Universitas Lampung,http://lpse.unila.ac.id
480,Universitas Malikussaleh,http://lpse.unimal.ac.id
689,Universitas Mataram,http://lpse.unram.ac.id
690,Universitas Mataram,http://lpse.unram.ac.id
169,Universitas Mulawarman,http://lpse.unmul.ac.id
429,Universitas Negeri Gorontalo,http://lpse.ung.ac.id
30,Universitas Negeri Makassar,http://lpse.unm.ac.id
363,Universitas Negeri Malang,http://lpse.um.ac.id
387,Universitas Negeri Manado,http://lpse.unima.ac.id
38,Universitas Negeri Medan,http://lpse.unimed.ac.id
293,Universitas Negeri Padang,http://lpse.unp.ac.id
637,Universitas Negeri Sebelas Maret Surakarta,http://lpse.uns.ac.id
216,Universitas Negeri Semarang,http://lpse.unnes.ac.id
162,Universitas Negeri Surabaya,http://lpse.unesa.ac.id
512,Universitas Palangka Raya,http://lpse.upr.ac.id
499,Universitas Riau,http://lpse.unri.ac.id
584,Universitas Sam Ratulangi,http://lpse.unsrat.ac.id
221,Universitas Sriwijaya,http://lpse.unsri.ac.id
272,Universitas Sumatera Utara,http://lpse.usu.ac.id
468,Universitas Syiah Kuala Banda Aceh,http://lpse.unsyiah.ac.id
213,Universitas Tadulako,http://lpse.untad.ac.id
224,Universitas Tanjung Pura,http://lpse.untan.ac.id
446,Universitas Udayana,http://lpse.unud.ac.id
